127.0.0.1 - - [05/Jan/2024:15:18:23 +0530] "GET / HTTP/1.1" 404 751
0:0:0:0:0:0:0:1 - - [05/Jan/2024:15:18:24 +0530] "GET /EmpWebApp/Login.html HTTP/1.1" 200 495
0:0:0:0:0:0:0:1 - - [05/Jan/2024:15:18:45 +0530] "GET /EmpWebApp/Login?emailId=ran@gmail.com&password=123 HTTP/1.1" 200 301
0:0:0:0:0:0:0:1 - - [05/Jan/2024:15:19:07 +0530] "GET /EmpWebApp/GetAllEmps HTTP/1.1" 500 1606
0:0:0:0:0:0:0:1 - - [05/Jan/2024:15:19:13 +0530] "GET /EmpWebApp/ HTTP/1.1" 404 765
0:0:0:0:0:0:0:1 - - [05/Jan/2024:15:19:23 +0530] "GET /EmpWebApp/GetAllEmps HTTP/1.1" 500 1606
0:0:0:0:0:0:0:1 - - [05/Jan/2024:15:20:48 +0530] "GET /EmpWebApp/Login?emailId=ran@gmail.com&password=123 HTTP/1.1" 200 301
0:0:0:0:0:0:0:1 - - [05/Jan/2024:15:21:49 +0530] "GET /EmpWebApp/GetAllEmps HTTP/1.1" 500 1606
127.0.0.1 - - [05/Jan/2024:15:23:20 +0530] "GET / HTTP/1.1" 404 751
0:0:0:0:0:0:0:1 - - [05/Jan/2024:15:23:40 +0530] "GET /EmpWebApp/Login?emailId=ran@gmail.com&password=123 HTTP/1.1" 200 301
0:0:0:0:0:0:0:1 - - [05/Jan/2024:15:23:43 +0530] "GET /EmpWebApp/GetAllEmps HTTP/1.1" 500 1606
127.0.0.1 - - [05/Jan/2024:15:25:04 +0530] "GET / HTTP/1.1" 404 751
0:0:0:0:0:0:0:1 - - [05/Jan/2024:15:25:31 +0530] "GET /EmpWebApp/Login?emailId=ran@gmail.com&password=123 HTTP/1.1" 200 301
0:0:0:0:0:0:0:1 - - [05/Jan/2024:15:25:33 +0530] "GET /EmpWebApp/GetAllEmps HTTP/1.1" 500 1606
0:0:0:0:0:0:0:1 - - [05/Jan/2024:15:27:18 +0530] "GET /EmpWebApp/GetAllEmps HTTP/1.1" 500 1606
0:0:0:0:0:0:0:1 - - [05/Jan/2024:15:29:40 +0530] "GET /EmpWebApp/Login?emailId=HR&password=HR HTTP/1.1" 404 771
127.0.0.1 - - [05/Jan/2024:15:53:02 +0530] "GET / HTTP/1.1" 404 751
0:0:0:0:0:0:0:1 - - [05/Jan/2024:15:53:03 +0530] "GET /EmpWebApp/Register.html HTTP/1.1" 200 1043
0:0:0:0:0:0:0:1 - - [05/Jan/2024:15:54:21 +0530] "POST /EmpWebApp/Register HTTP/1.1" 404 773
0:0:0:0:0:0:0:1 - - [05/Jan/2024:15:55:00 +0530] "POST /EmpWebApp/Register HTTP/1.1" 404 773
0:0:0:0:0:0:0:1 - - [05/Jan/2024:15:55:06 +0530] "POST /EmpWebApp/Register HTTP/1.1" 404 773
127.0.0.1 - - [05/Jan/2024:15:56:17 +0530] "GET / HTTP/1.1" 404 751
0:0:0:0:0:0:0:1 - - [05/Jan/2024:15:56:17 +0530] "GET /EmpWebApp/Register.html HTTP/1.1" 304 -
0:0:0:0:0:0:0:1 - - [05/Jan/2024:15:56:43 +0530] "POST /EmpWebApp/Register HTTP/1.1" 200 1132
0:0:0:0:0:0:0:1 - - [05/Jan/2024:15:59:53 +0530] "POST /EmpWebApp/Register HTTP/1.1" 200 588
0:0:0:0:0:0:0:1 - - [05/Jan/2024:16:00:10 +0530] "GET /EmpWebApp/Login?emailId=priya@gmail.com&password=123 HTTP/1.1" 200 303
0:0:0:0:0:0:0:1 - - [05/Jan/2024:16:00:45 +0530] "GET /EmpWebApp/Login?emailId=ran@gmail.com&password=123 HTTP/1.1" 200 301
127.0.0.1 - - [05/Jan/2024:16:03:26 +0530] "GET / HTTP/1.1" 404 751
0:0:0:0:0:0:0:1 - - [05/Jan/2024:16:04:01 +0530] "GET /EmpWebApp/Login?emailId=ran@gmail.com&password=123 HTTP/1.1" 200 302
0:0:0:0:0:0:0:1 - - [05/Jan/2024:16:05:10 +0530] "GET /EmpWebApp/GetAllEmps HTTP/1.1" 500 1606
0:0:0:0:0:0:0:1 - - [05/Jan/2024:16:05:26 +0530] "GET /EmpWebApp/Logout HTTP/1.1" 200 495
0:0:0:0:0:0:0:1 - - [05/Jan/2024:16:05:38 +0530] "GET /EmpWebApp/Login?emailId=HR&password=HR HTTP/1.1" 404 771
0:0:0:0:0:0:0:1 - - [05/Jan/2024:16:11:26 +0530] "GET /EmpWebApp/Login?emailId=HR&password=HR HTTP/1.1" 404 771
0:0:0:0:0:0:0:1 - - [05/Jan/2024:16:13:31 +0530] "GET /EmpWebApp/Register HTTP/1.1" 500 1236
0:0:0:0:0:0:0:1 - - [05/Jan/2024:16:14:09 +0530] "GET /EmpWebApp/Register.html HTTP/1.1" 304 -
0:0:0:0:0:0:0:1 - - [05/Jan/2024:16:14:51 +0530] "POST /EmpWebApp/Register HTTP/1.1" 200 588
0:0:0:0:0:0:0:1 - - [05/Jan/2024:16:15:13 +0530] "GET /EmpWebApp/Login?emailId=HR&password=HR HTTP/1.1" 404 771
0:0:0:0:0:0:0:1 - - [05/Jan/2024:16:32:09 +0530] "GET /EmpWebApp/Login?emailId=HR&password=HR HTTP/1.1" 404 771
127.0.0.1 - - [05/Jan/2024:16:34:14 +0530] "GET / HTTP/1.1" 404 751
0:0:0:0:0:0:0:1 - - [05/Jan/2024:16:34:15 +0530] "GET /EmpWebApp/Register.html HTTP/1.1" 304 -
0:0:0:0:0:0:0:1 - - [05/Jan/2024:16:34:32 +0530] "GET /EmpWebApp/Login?emailId=HR&password=HR HTTP/1.1" 200 290
0:0:0:0:0:0:0:1 - - [05/Jan/2024:16:34:48 +0530] "GET /EmpWebApp/GetAllEmps HTTP/1.1" 200 960
0:0:0:0:0:0:0:1 - - [05/Jan/2024:16:34:49 +0530] "GET /EmpWebApp/GetAllEmps HTTP/1.1" 200 960
0:0:0:0:0:0:0:1 - - [05/Jan/2024:16:34:54 +0530] "GET /EmpWebApp/GetAllEmps HTTP/1.1" 200 960
0:0:0:0:0:0:0:1 - - [05/Jan/2024:16:34:56 +0530] "GET /EmpWebApp/GetAllEmps HTTP/1.1" 200 960
0:0:0:0:0:0:0:1 - - [05/Jan/2024:17:07:11 +0530] "GET /EmpWebApp/Register.html HTTP/1.1" 304 -
0:0:0:0:0:0:0:1 - - [05/Jan/2024:17:07:58 +0530] "POST /EmpWebApp/Register HTTP/1.1" 200 588
0:0:0:0:0:0:0:1 - - [05/Jan/2024:17:08:15 +0530] "GET /EmpWebApp/Login?emailId=virat@gmail.com&password=123 HTTP/1.1" 200 304
0:0:0:0:0:0:0:1 - - [05/Jan/2024:17:08:30 +0530] "GET /EmpWebApp/ HTTP/1.1" 404 765
0:0:0:0:0:0:0:1 - - [05/Jan/2024:17:08:35 +0530] "GET /EmpWebApp/GetAllEmps HTTP/1.1" 200 1062
0:0:0:0:0:0:0:1 - - [05/Jan/2024:17:08:36 +0530] "GET /EmpWebApp/ HTTP/1.1" 404 765
